Running SSTF Strategy
0                                                 1                                                 2                                                 3                                                 4                                                 5
0....1....2....3....4....5....6....7....8....9....0....1....2....3....4....5....6....7....8....9....0....1....2....3....4....5....6....7....8....9....0....1....2....3....4....5....6....7....8....9....0....1....2....3....4....5....6....7....8....9....0
                                                                                                                 *2255
                                                                                                                    *2304
                                                                                                       *2055
                                                                                     *1680
                                                                       *1401
                                                           *1175
                          *513
             *256
                                                                                                                                        *2700
                                                                                                                                                                                         *3692
                                                                                                                                                                                                                                                       *4922
Total head movement: 6763 cylinders


