Server waiting to connect ...
sent Fri Apr 30 20:42:36 2021
Server waiting to connect ...
sent Fri Apr 30 20:42:41 2021
Server waiting to connect ...
sent Fri Apr 30 20:42:45 2021
Server waiting to connect ...
sent Fri Apr 30 20:42:55 2021
Server waiting to connect ...
sent Fri Apr 30 20:43:05 2021
Server waiting to connect ...
sent Fri Apr 30 20:43:15 2021
Server waiting to connect ...
sent Fri Apr 30 20:43:21 2021
Server waiting to connect ...
sent Fri Apr 30 20:43:31 2021
Server waiting to connect ...
sent Fri Apr 30 20:43:41 2021
Server waiting to connect ...
sent Fri Apr 30 20:43:51 2021
Server waiting to connect ...
sent Fri Apr 30 20:43:56 2021
Server waiting to connect ...
