Ref	 Frames	 Action
1	 1	 
2	 2 1	 
2	 1 2	 
3	 3 1 2	 
2	 3 1 2	 
1	 3 1 2	 
1	 3 1 2	 
1	 3 2 1	 
0	 0 3 2	 1 evicted, 0 entered
0	 3 0 2	 
0	 3 0 2	 
4	 4 3 0	 2 evicted, 4 entered
3	 4 3 0	 
5	 5 4 3	 0 evicted, 5 entered
1	 1 5 4	 3 evicted, 1 entered
1	 5 4 1	 
2	 2 5 4	 1 evicted, 2 entered
6	 6 2 5	 4 evicted, 6 entered
1	 1 6 2	 5 evicted, 1 entered
2	 1 6 2	 
3	 3 1 6	 2 evicted, 3 entered
4	 4 3 1	 6 evicted, 4 entered
1	 4 3 1	 
5	 5 4 3	 1 evicted, 5 entered
1	 1 5 4	 3 evicted, 1 entered
1	 5 4 1	 
1	 5 4 1	 
1	 5 4 1	 
1	 5 4 1	 
1	 5 4 1	 
1	 5 4 1	 
1	 5 4 1	 
1	 5 4 1	 
1	 5 4 1	 
1	 5 4 1	 
2	 2 5 4	 1 evicted, 2 entered
2	 5 4 2	 
5	 4 5 2	 
1	 1 4 5	 2 evicted, 1 entered
1	 4 1 5	 
2	 2 4 1	 5 evicted, 2 entered
2	 4 2 1	 
6	 6 4 2	 1 evicted, 6 entered
7	 7 6 4	 2 evicted, 7 entered
0	 0 7 6	 4 evicted, 0 entered
1	 1 0 7	 6 evicted, 1 entered
1	 0 7 1	 
1	 0 7 1	 
1	 0 7 1	 
1	 0 7 1	 
3	 3 0 7	 1 evicted, 3 entered
4	 4 3 0	 7 evicted, 4 entered
5	 5 4 3	 0 evicted, 5 entered
0	 0 5 4	 3 evicted, 0 entered
1	 1 0 5	 4 evicted, 1 entered
2	 2 1 0	 5 evicted, 2 entered
1	 2 0 1	 
2	 0 2 1	 
2	 0 1 2	 
3	 3 0 1	 2 evicted, 3 entered
1	 3 0 1	 
2	 2 3 0	 1 evicted, 2 entered
2	 3 0 2	 
3	 0 3 2	 
3	 0 2 3	 
1	 1 0 2	 3 evicted, 1 entered
4	 4 1 0	 2 evicted, 4 entered
4	 1 0 4	 
5	 5 1 0	 4 evicted, 5 entered
6	 6 5 1	 0 evicted, 6 entered
4	 4 6 5	 1 evicted, 4 entered
1	 1 4 6	 5 evicted, 1 entered
1	 4 6 1	 
1	 4 6 1	 
1	 4 6 1	 
2	 2 4 6	 1 evicted, 2 entered
2	 4 6 2	 
4	 6 4 2	 
1	 1 6 4	 2 evicted, 1 entered
1	 6 1 4	 
1	 6 4 1	 
2	 2 6 4	 1 evicted, 2 entered
2	 6 2 4	 
3	 3 6 2	 4 evicted, 3 entered
3	 6 3 2	 
4	 4 6 3	 2 evicted, 4 entered
3	 4 6 3	 
0	 0 4 6	 3 evicted, 0 entered
1	 1 0 4	 6 evicted, 1 entered
1	 0 4 1	 
6	 6 0 4	 1 evicted, 6 entered
4	 6 0 4	 
5	 5 6 0	 4 evicted, 5 entered
0	 5 6 0	 
5	 6 5 0	 
3	 3 6 5	 0 evicted, 3 entered
1	 1 3 6	 5 evicted, 1 entered
1	 3 6 1	 
1	 3 6 1	 
1	 3 6 1	 
Hit Ratio:	 54.00
Page Swap:	 46


Ref	 Frames	 Action
1	 1	 
2	 2 1	 
2	 1 2	 
3	 3 1 2	 
2	 3 1 2	 
1	 3 1 2	 
1	 3 1 2	 
1	 3 2 1	 
0	 0 3 2	 1 evicted, 0 entered
0	 3 0 2	 
0	 3 0 2	 
4	 4 3 0	 2 evicted, 4 entered
3	 4 3 0	 
5	 5 4 3	 0 evicted, 5 entered
1	 1 5 4	 3 evicted, 1 entered
1	 5 4 1	 
2	 2 5 4	 1 evicted, 2 entered
6	 6 2 5	 4 evicted, 6 entered
1	 1 6 2	 5 evicted, 1 entered
2	 1 6 2	 
3	 3 1 6	 2 evicted, 3 entered
4	 4 3 1	 6 evicted, 4 entered
1	 4 3 1	 
5	 5 4 3	 1 evicted, 5 entered
1	 1 5 4	 3 evicted, 1 entered
1	 5 4 1	 
1	 5 4 1	 
1	 5 4 1	 
1	 5 4 1	 
1	 5 4 1	 
1	 5 4 1	 
1	 5 4 1	 
1	 5 4 1	 
1	 5 4 1	 
1	 5 4 1	 
2	 2 5 4	 1 evicted, 2 entered
2	 5 4 2	 
5	 4 5 2	 
1	 1 4 5	 2 evicted, 1 entered
1	 4 1 5	 
2	 2 4 1	 5 evicted, 2 entered
2	 4 2 1	 
6	 6 4 2	 1 evicted, 6 entered
7	 7 6 4	 2 evicted, 7 entered
0	 0 7 6	 4 evicted, 0 entered
1	 1 0 7	 6 evicted, 1 entered
1	 0 7 1	 
1	 0 7 1	 
1	 0 7 1	 
1	 0 7 1	 
3	 3 0 7	 1 evicted, 3 entered
4	 4 3 0	 7 evicted, 4 entered
5	 5 4 3	 0 evicted, 5 entered
0	 0 5 4	 3 evicted, 0 entered
1	 1 0 5	 4 evicted, 1 entered
2	 2 1 0	 5 evicted, 2 entered
1	 2 0 1	 
2	 0 2 1	 
2	 0 1 2	 
3	 3 0 1	 2 evicted, 3 entered
1	 3 0 1	 
2	 2 3 0	 1 evicted, 2 entered
2	 3 0 2	 
3	 0 3 2	 
3	 0 2 3	 
1	 1 0 2	 3 evicted, 1 entered
4	 4 1 0	 2 evicted, 4 entered
4	 1 0 4	 
5	 5 1 0	 4 evicted, 5 entered
6	 6 5 1	 0 evicted, 6 entered
4	 4 6 5	 1 evicted, 4 entered
1	 1 4 6	 5 evicted, 1 entered
1	 4 6 1	 
1	 4 6 1	 
1	 4 6 1	 
2	 2 4 6	 1 evicted, 2 entered
2	 4 6 2	 
4	 6 4 2	 
1	 1 6 4	 2 evicted, 1 entered
1	 6 1 4	 
1	 6 4 1	 
2	 2 6 4	 1 evicted, 2 entered
2	 6 2 4	 
3	 3 6 2	 4 evicted, 3 entered
3	 6 3 2	 
4	 4 6 3	 2 evicted, 4 entered
3	 4 6 3	 
0	 0 4 6	 3 evicted, 0 entered
1	 1 0 4	 6 evicted, 1 entered
1	 0 4 1	 
6	 6 0 4	 1 evicted, 6 entered
4	 6 0 4	 
5	 5 6 0	 4 evicted, 5 entered
0	 5 6 0	 
5	 6 5 0	 
3	 3 6 5	 0 evicted, 3 entered
1	 1 3 6	 5 evicted, 1 entered
1	 3 6 1	 
1	 3 6 1	 
1	 3 6 1	 
Hit Ratio:	 54.00
Page Swap:	 46


Ref	 Frames	 Action
1	 1	 
2	 2 1	 
2	 1 2	 
3	 3 1 2	 
2	 3 1 2	 
1	 3 1 2	 
1	 3 1 2	 
1	 3 2 1	 
0	 0 3 2	 1 evicted, 0 entered
0	 3 0 2	 
0	 3 0 2	 
4	 4 3 0	 2 evicted, 4 entered
3	 4 3 0	 
5	 5 4 3	 0 evicted, 5 entered
1	 1 5 4	 3 evicted, 1 entered
1	 5 4 1	 
2	 2 5 4	 1 evicted, 2 entered
6	 6 2 5	 4 evicted, 6 entered
1	 1 6 2	 5 evicted, 1 entered
2	 1 6 2	 
3	 3 1 6	 2 evicted, 3 entered
4	 4 3 1	 6 evicted, 4 entered
1	 4 3 1	 
5	 5 4 3	 1 evicted, 5 entered
1	 1 5 4	 3 evicted, 1 entered
1	 5 4 1	 
1	 5 4 1	 
1	 5 4 1	 
1	 5 4 1	 
1	 5 4 1	 
1	 5 4 1	 
1	 5 4 1	 
1	 5 4 1	 
1	 5 4 1	 
1	 5 4 1	 
2	 2 5 4	 1 evicted, 2 entered
2	 5 4 2	 
5	 4 5 2	 
1	 1 4 5	 2 evicted, 1 entered
1	 4 1 5	 
2	 2 4 1	 5 evicted, 2 entered
2	 4 2 1	 
6	 6 4 2	 1 evicted, 6 entered
7	 7 6 4	 2 evicted, 7 entered
0	 0 7 6	 4 evicted, 0 entered
1	 1 0 7	 6 evicted, 1 entered
1	 0 7 1	 
1	 0 7 1	 
1	 0 7 1	 
1	 0 7 1	 
3	 3 0 7	 1 evicted, 3 entered
4	 4 3 0	 7 evicted, 4 entered
5	 5 4 3	 0 evicted, 5 entered
0	 0 5 4	 3 evicted, 0 entered
1	 1 0 5	 4 evicted, 1 entered
2	 2 1 0	 5 evicted, 2 entered
1	 2 0 1	 
2	 0 2 1	 
2	 0 1 2	 
3	 3 0 1	 2 evicted, 3 entered
1	 3 0 1	 
2	 2 3 0	 1 evicted, 2 entered
2	 3 0 2	 
3	 0 3 2	 
3	 0 2 3	 
1	 1 0 2	 3 evicted, 1 entered
4	 4 1 0	 2 evicted, 4 entered
4	 1 0 4	 
5	 5 1 0	 4 evicted, 5 entered
6	 6 5 1	 0 evicted, 6 entered
4	 4 6 5	 1 evicted, 4 entered
1	 1 4 6	 5 evicted, 1 entered
1	 4 6 1	 
1	 4 6 1	 
1	 4 6 1	 
2	 2 4 6	 1 evicted, 2 entered
2	 4 6 2	 
4	 6 4 2	 
1	 1 6 4	 2 evicted, 1 entered
1	 6 1 4	 
1	 6 4 1	 
2	 2 6 4	 1 evicted, 2 entered
2	 6 2 4	 
3	 3 6 2	 4 evicted, 3 entered
3	 6 3 2	 
4	 4 6 3	 2 evicted, 4 entered
3	 4 6 3	 
0	 0 4 6	 3 evicted, 0 entered
1	 1 0 4	 6 evicted, 1 entered
1	 0 4 1	 
6	 6 0 4	 1 evicted, 6 entered
4	 6 0 4	 
5	 5 6 0	 4 evicted, 5 entered
0	 5 6 0	 
5	 6 5 0	 
3	 3 6 5	 0 evicted, 3 entered
1	 1 3 6	 5 evicted, 1 entered
1	 3 6 1	 
1	 3 6 1	 
1	 3 6 1	 
Hit Ratio:	 54.00
Page Swap:	 46


Ref	 Frames	 Action
1	 1	 
2	 2 1	 
2	 1 2	 
3	 3 1 2	 
2	 3 1 2	 
1	 3 1 2	 
1	 3 1 2	 
1	 3 2 1	 
0	 0 3 2	 1 evicted, 0 entered
0	 3 0 2	 
0	 3 0 2	 
4	 4 3 0	 2 evicted, 4 entered
3	 4 3 0	 
5	 5 4 3	 0 evicted, 5 entered
1	 1 5 4	 3 evicted, 1 entered
1	 5 4 1	 
2	 2 5 4	 1 evicted, 2 entered
6	 6 2 5	 4 evicted, 6 entered
1	 1 6 2	 5 evicted, 1 entered
2	 1 6 2	 
3	 3 1 6	 2 evicted, 3 entered
4	 4 3 1	 6 evicted, 4 entered
1	 4 3 1	 
5	 5 4 3	 1 evicted, 5 entered
1	 1 5 4	 3 evicted, 1 entered
1	 5 4 1	 
1	 5 4 1	 
1	 5 4 1	 
1	 5 4 1	 
1	 5 4 1	 
1	 5 4 1	 
1	 5 4 1	 
1	 5 4 1	 
1	 5 4 1	 
1	 5 4 1	 
2	 2 5 4	 1 evicted, 2 entered
2	 5 4 2	 
5	 4 5 2	 
1	 1 4 5	 2 evicted, 1 entered
1	 4 1 5	 
2	 2 4 1	 5 evicted, 2 entered
2	 4 2 1	 
6	 6 4 2	 1 evicted, 6 entered
7	 7 6 4	 2 evicted, 7 entered
0	 0 7 6	 4 evicted, 0 entered
1	 1 0 7	 6 evicted, 1 entered
1	 0 7 1	 
1	 0 7 1	 
1	 0 7 1	 
1	 0 7 1	 
3	 3 0 7	 1 evicted, 3 entered
4	 4 3 0	 7 evicted, 4 entered
5	 5 4 3	 0 evicted, 5 entered
0	 0 5 4	 3 evicted, 0 entered
1	 1 0 5	 4 evicted, 1 entered
2	 2 1 0	 5 evicted, 2 entered
1	 2 0 1	 
2	 0 2 1	 
2	 0 1 2	 
3	 3 0 1	 2 evicted, 3 entered
1	 3 0 1	 
2	 2 3 0	 1 evicted, 2 entered
2	 3 0 2	 
3	 0 3 2	 
3	 0 2 3	 
1	 1 0 2	 3 evicted, 1 entered
4	 4 1 0	 2 evicted, 4 entered
4	 1 0 4	 
5	 5 1 0	 4 evicted, 5 entered
6	 6 5 1	 0 evicted, 6 entered
4	 4 6 5	 1 evicted, 4 entered
1	 1 4 6	 5 evicted, 1 entered
1	 4 6 1	 
1	 4 6 1	 
1	 4 6 1	 
2	 2 4 6	 1 evicted, 2 entered
2	 4 6 2	 
4	 6 4 2	 
1	 1 6 4	 2 evicted, 1 entered
1	 6 1 4	 
1	 6 4 1	 
2	 2 6 4	 1 evicted, 2 entered
2	 6 2 4	 
3	 3 6 2	 4 evicted, 3 entered
3	 6 3 2	 
4	 4 6 3	 2 evicted, 4 entered
3	 4 6 3	 
0	 0 4 6	 3 evicted, 0 entered
1	 1 0 4	 6 evicted, 1 entered
1	 0 4 1	 
6	 6 0 4	 1 evicted, 6 entered
4	 6 0 4	 
5	 5 6 0	 4 evicted, 5 entered
0	 5 6 0	 
5	 6 5 0	 
3	 3 6 5	 0 evicted, 3 entered
1	 1 3 6	 5 evicted, 1 entered
1	 3 6 1	 
1	 3 6 1	 
1	 3 6 1	 
Hit Ratio:	 54.00
Page Swap:	 46


Ref	 Frames	 Action
1	 1	 
2	 2 1	 
2	 1 2	 
3	 3 1 2	 
2	 3 1 2	 
1	 3 1 2	 
1	 3 1 2	 
1	 3 2 1	 
0	 0 3 2	 1 evicted, 0 entered
0	 3 0 2	 
0	 3 0 2	 
4	 4 3 0	 2 evicted, 4 entered
3	 4 3 0	 
5	 5 4 3	 0 evicted, 5 entered
1	 1 5 4	 3 evicted, 1 entered
1	 5 4 1	 
2	 2 5 4	 1 evicted, 2 entered
6	 6 2 5	 4 evicted, 6 entered
1	 1 6 2	 5 evicted, 1 entered
2	 1 6 2	 
3	 3 1 6	 2 evicted, 3 entered
4	 4 3 1	 6 evicted, 4 entered
1	 4 3 1	 
5	 5 4 3	 1 evicted, 5 entered
1	 1 5 4	 3 evicted, 1 entered
1	 5 4 1	 
1	 5 4 1	 
1	 5 4 1	 
1	 5 4 1	 
1	 5 4 1	 
1	 5 4 1	 
1	 5 4 1	 
1	 5 4 1	 
1	 5 4 1	 
1	 5 4 1	 
2	 2 5 4	 1 evicted, 2 entered
2	 5 4 2	 
5	 4 5 2	 
1	 1 4 5	 2 evicted, 1 entered
1	 4 1 5	 
2	 2 4 1	 5 evicted, 2 entered
2	 4 2 1	 
6	 6 4 2	 1 evicted, 6 entered
7	 7 6 4	 2 evicted, 7 entered
0	 0 7 6	 4 evicted, 0 entered
1	 1 0 7	 6 evicted, 1 entered
1	 0 7 1	 
1	 0 7 1	 
1	 0 7 1	 
1	 0 7 1	 
3	 3 0 7	 1 evicted, 3 entered
4	 4 3 0	 7 evicted, 4 entered
5	 5 4 3	 0 evicted, 5 entered
0	 0 5 4	 3 evicted, 0 entered
1	 1 0 5	 4 evicted, 1 entered
2	 2 1 0	 5 evicted, 2 entered
1	 2 0 1	 
2	 0 2 1	 
2	 0 1 2	 
3	 3 0 1	 2 evicted, 3 entered
1	 3 0 1	 
2	 2 3 0	 1 evicted, 2 entered
2	 3 0 2	 
3	 0 3 2	 
3	 0 2 3	 
1	 1 0 2	 3 evicted, 1 entered
4	 4 1 0	 2 evicted, 4 entered
4	 1 0 4	 
5	 5 1 0	 4 evicted, 5 entered
6	 6 5 1	 0 evicted, 6 entered
4	 4 6 5	 1 evicted, 4 entered
1	 1 4 6	 5 evicted, 1 entered
1	 4 6 1	 
1	 4 6 1	 
1	 4 6 1	 
2	 2 4 6	 1 evicted, 2 entered
2	 4 6 2	 
4	 6 4 2	 
1	 1 6 4	 2 evicted, 1 entered
1	 6 1 4	 
1	 6 4 1	 
2	 2 6 4	 1 evicted, 2 entered
2	 6 2 4	 
3	 3 6 2	 4 evicted, 3 entered
3	 6 3 2	 
4	 4 6 3	 2 evicted, 4 entered
3	 4 6 3	 
0	 0 4 6	 3 evicted, 0 entered
1	 1 0 4	 6 evicted, 1 entered
1	 0 4 1	 
6	 6 0 4	 1 evicted, 6 entered
4	 6 0 4	 
5	 5 6 0	 4 evicted, 5 entered
0	 5 6 0	 
5	 6 5 0	 
3	 3 6 5	 0 evicted, 3 entered
1	 1 3 6	 5 evicted, 1 entered
1	 3 6 1	 
1	 3 6 1	 
1	 3 6 1	 
Hit Ratio:	 54.00
Page Swap:	 46


Average Hit Ratio for 5 times is: 54.00
Average Page Swap for 5 times is: 46.00
